…
## Checking the expression data

To check this worked, let's have a closer look at the main expression table by previewing the first 10 rows and columns.
Note how each row corresponds to a gene and each column corresponds to a tissue. Entries in the table contain the
expression levels of each gene in each tissue in TPM units.


```r
print(gtex)
```

You should see something like this:
```r
# A tibble: 14,240 × 55
   gene_name Adipose_Subcutaneous Adipose_Visceral_Omentum Adrenal_Gland Artery_Aorta Artery_Coronary Artery_Tibial Bladder Brain_Amygdala
   <chr>                    <dbl>                    <dbl>         <dbl>        <dbl>           <dbl>         <dbl>   <dbl>          <dbl>
 1 LINC01128                7.44                     7.80           4.03        8.85            8.72         11.1      7.62          2.98 
 2 LINC00115                4.49                     3.42           2.75        6.23            5.94          7.82     7.57          1.45 
 3 SAMD11                   0.476                    2.93           3.78        5.72            3.10          7.93    19.1           0.533
 4 NOC2L                   52.9                     48.2           37.2        55.5            51.9          62.6     71.9          18.3  
 5 KLHL17                   9.68                     8.97           7.89       13.9            13.4          10.7     17.6           3.05 
 6 PLEKHN1                  0.560                    0.648          1.93        0.744           0.868         0.718    4.22          0.107
 7 HES4                    21.8                     24.2            2.91       46.6            64.6          98.4     33.1          16.7  
 8 ISG15                   36.6                     35.0           13.5        50.8            43.7          50.4     33.0          43.6  
 9 AGRN                    18.5                     21.5            4.78       25.3            25.8          22.7     20.0          18.8  
10 C1orf159                 9.30                     6.11           5.08        7.60            8.15          7.57    10.3           5.51 
# ℹ 14,230 more rows
# ℹ 46 more variables: Brain_Anterior_cingulate_cortex_BA24 <dbl>, Brain_Caudate_basal_ganglia <dbl>, Brain_Cerebellar_Hemisphere <dbl>,
#   Brain_Cerebellum <dbl>, Brain_Cortex <dbl>, Brain_Frontal_Cortex_BA9 <dbl>, Brain_Hippocampus <dbl>, Brain_Hypothalamus <dbl>,
#   Brain_Nucleus_accumbens_basal_ganglia <dbl>, Brain_Putamen_basal_ganglia <dbl>, Brain_Spinal_cord_cervical_c1 <dbl>,
#   Brain_Substantia_nigra <dbl>, Breast_Mammary_Tissue <dbl>, Cells_Cultured_fibroblasts <dbl>, Cells_EBV_transformed_lymphocytes <dbl>,
#   Cervix_Ectocervix <dbl>, Cervix_Endocervix <dbl>, Colon_Sigmoid <dbl>, Colon_Transverse <dbl>, Esophagus_Gastroesophageal_Junction <dbl>,
#   Esophagus_Mucosa <dbl>, Esophagus_Muscularis <dbl>, Fallopian_Tube <dbl>, Heart_Atrial_Appendage <dbl>, Heart_Left_Ventricle <dbl>, …
# ℹ Use `print(n = ...)` to see more rows
```
…
## Checking the gene annotations

Let's also look at the first rows in the gene annotations table. You'll notice that this table contains information pertaining each gene, such as its name, unique ID, genomic location (chromosome, start position, and end position), and its gene family.


```r
print(gene_annotations)
```

```r
# A tibble: 14,240 × 7
   gene_name gene_id         gene_symbol chr     start     end biotype       
   <chr>     <chr>           <chr>       <chr>   <dbl>   <dbl> <chr>         
 1 LINC01128 ENSG00000228794 LINC01128   1      825138  859446 lncRNA        
 2 LINC00115 ENSG00000225880 LINC00115   1      826206  827522 lncRNA        
 3 SAMD11    ENSG00000187634 SAMD11      1      923923  944575 protein_coding
 4 NOC2L     ENSG00000188976 NOC2L       1      944203  959309 protein_coding
 5 KLHL17    ENSG00000187961 KLHL17      1      960584  965719 protein_coding
 6 PLEKHN1   ENSG00000187583 PLEKHN1     1      966482  975865 protein_coding
 7 HES4      ENSG00000188290 HES4        1      998962 1000172 protein_coding
 8 ISG15     ENSG00000187608 ISG15       1     1001138 1014540 protein_coding
 9 AGRN      ENSG00000188157 AGRN        1     1020120 1056118 protein_coding
10 C1orf159  ENSG00000131591 C1orf159    1     1081818 1116361 protein_coding
# ℹ 14,230 more rows
# ℹ Use `print(n = ...)` to see more rows
```
…
