…
The idea is that this has both a 'total gene length' (sum of lengths of genes) and the total sequence length (length of
the chromosome or contig) in the same dataframe:

```
# A tibble: 5,469 × 6
# Groups:   dataset [11]
   dataset                                     seqid          number_of_genes total_gene_length attributes                                  sequence_length
   <chr>                                       <chr>                    <int>             <dbl> <chr>                                                 <dbl>
 1 Acanthochromis_polyacanthus.ASM210954v1.110 MVNR01000001.1              56           1349511 Alias=orpheusFish_scaffold1,NW_019029117.1          2466117
 2 Acanthochromis_polyacanthus.ASM210954v1.110 MVNR01000002.1              39           1029333 Alias=orpheusFish_scaffold2,NW_019029118.1          2338421
 3 Acanthochromis_polyacanthus.ASM210954v1.110 MVNR01000003.1              56           1399228 Alias=orpheusFish_scaffold3,NW_019029119.1          2213793
 4 Acanthochromis_polyacanthus.ASM210954v1.110 MVNR01000004.1              41           1113000 Alias=orpheusFish_scaffold4,NW_019029120.1          2013838
 5 Acanthochromis_polyacanthus.ASM210954v1.110 MVNR01000005.1              45           1012078 Alias=orpheusFish_scaffold5,NW_019029121.1          1950346
 6 Acanthochromis_polyacanthus.ASM210954v1.110 MVNR01000006.1              54            989013 Alias=orpheusFish_scaffold6,NW_019029122.1          2094391
 7 Acanthochromis_polyacanthus.ASM210954v1.110 MVNR01000007.1              84           1074990 Alias=orpheusFish_scaffold7,NW_019029123.1          1729193
 8 Acanthochromis_polyacanthus.ASM210954v1.110 MVNR01000008.1              72           1486459 Alias=orpheusFish_scaffold8,NW_019029124.1          2368326
 9 Acanthochromis_polyacanthus.ASM210954v1.110 MVNR01000009.1              50           1237060 Alias=orpheusFish_scaffold9,NW_019029125.1          2396890
10 Acanthochromis_polyacanthus.ASM210954v1.110 MVNR01000010.1              39            643138 Alias=orpheusFish_scaffold10,NW_019029126.1         1656807
# ℹ 5,459 more rows
# ℹ Use `print(n = ...)` to see more rows
```
…
