…
This downloads to your current directory, so that you can load like this:
```
> X = read_tsv( "GRCh38_sequence_data.tsv" )
```

## Viewing the data

We'll only scratch the surface of data manipulation here but here are a few ways to look at this data.
First, you can view the data by printing it:
```
> print(X)
```
You should see something like this:
```
# A tibble: 455 × 4
   name     length role               gc_percent
   <chr>     <dbl> <chr>                   <dbl>
 1 1     248956422 assembled-molecule       41.5
 2 2     242193529 assembled-molecule       40  
 3 3     198295559 assembled-molecule       39.5
 4 4     190214555 assembled-molecule       38  
 5 5     181538259 assembled-molecule       39  
 6 6     170805979 assembled-molecule       39.5
 7 7     159345973 assembled-molecule       40.5
 8 8     145138636 assembled-molecule       40  
 9 9     138394717 assembled-molecule       41  
10 10    133797422 assembled-molecule       41  
# ℹ 445 more rows
# ℹ Use `print(n = ...)` to see more rows
```
…
